{
   "Policy" : {
      "xsi.schemaLocation" : "urn:oasis:names:tc:xacml:2.0:policy:schema:os access_control-xacml-2.0-policy-schema-os.xsd",
      "PolicyId" : "FirstApplicable-DistributedDeny_G0",
      "Version" : "1.0",
      "RuleCombiningAlgId" : "urn:oasis:names:tc:xacml:1.0:rule-combining-algorithm:first-applicable",
      "Description" : "Combine rules R0-R5 with first_applicable, for Organisation.name = National Bank and Asset.type = Corporate Strategy or Marketing Plan",
      "Rule" : [ {
         "RuleId" : "R2",
         "Effect" : "Permit",
         "Description" : "Member.level = Senior can Write Asset.integrity = High OR Asset.integrity = Medium",
         "Target" : {
            "Subjects" : {
               "Subject" : [ {
                  "SubjectMatch" : [ {
                     "MatchId" : "urn:oasis:names:tc:xacml:1.0:function:string-equal",
                     "AttributeValue" : {
                        "DataType" : "http://www.w3.org/2001/XMLSchema#string",
                        "value" : [ "Member.level = Senior" ]
                     },
                     "SubjectAttributeDesignator" : {
                        "AttributeId" : "Member.level",
                        "DataType" : "http://www.w3.org/2001/XMLSchema#string",
                        "SubjectCategory" : "urn:oasis:names:tc:xacml:1.0:subject-category:access-subject"
                     }
                  } ]
               } ]
            },
            "Resources" : {
               "Resource" : [ {
                  "ResourceMatch" : [ {
                     "MatchId" : "urn:oasis:names:tc:xacml:1.0:function:string-equal",
                     "AttributeValue" : {
                        "DataType" : "http://www.w3.org/2001/XMLSchema#string",
                        "value" : [ "Asset.group = Document" ]
                     },
                     "ResourceAttributeDesignator" : {
                        "AttributeId" : "Asset.group",
                        "DataType" : "http://www.w3.org/2001/XMLSchema#string"
                     }
                  }, {
                     "MatchId" : "urn:oasis:names:tc:xacml:1.0:function:string-equal",
                     "AttributeValue" : {
                        "DataType" : "http://www.w3.org/2001/XMLSchema#string",
                        "value" : [ "Asset.integrity = High" ]
                     },
                     "ResourceAttributeDesignator" : {
                        "AttributeId" : "Asset.integrity",
                        "DataType" : "http://www.w3.org/2001/XMLSchema#string"
                     }
                  } ]
               }, {
                  "ResourceMatch" : [ {
                     "MatchId" : "urn:oasis:names:tc:xacml:1.0:function:string-equal",
                     "AttributeValue" : {
                        "DataType" : "http://www.w3.org/2001/XMLSchema#string",
                        "value" : [ "Asset.group = Document" ]
                     },
                     "ResourceAttributeDesignator" : {
                        "AttributeId" : "Asset.group",
                        "DataType" : "http://www.w3.org/2001/XMLSchema#string"
                     }
                  }, {
                     "MatchId" : "urn:oasis:names:tc:xacml:1.0:function:string-equal",
                     "AttributeValue" : {
                        "DataType" : "http://www.w3.org/2001/XMLSchema#string",
                        "value" : [ "Asset.integrity = Medium" ]
                     },
                     "ResourceAttributeDesignator" : {
                        "AttributeId" : "Asset.integrity",
                        "DataType" : "http://www.w3.org/2001/XMLSchema#string"
                     }
                  } ]
               } ]
            },
            "Actions" : {
               "Action" : [ {
                  "ActionMatch" : [ {
                     "MatchId" : "urn:oasis:names:tc:xacml:1.0:function:string-equal",
                     "AttributeValue" : {
                        "DataType" : "http://www.w3.org/2001/XMLSchema#string",
                        "value" : [ "Action.name = Write" ]
                     },
                     "ActionAttributeDesignator" : {
                        "AttributeId" : "urn:oasis:names:tc:xacml:1.0:action:action-id",
                        "DataType" : "http://www.w3.org/2001/XMLSchema#string"
                     }
                  } ]
               } ]
            }
         }
      }, {
         "RuleId" : "R3",
         "Effect" : "Permit",
         "Description" : "Member.level = Chief AND Member.function = Finance can Read or Write any permitted asset",
         "Target" : {
            "Subjects" : {
               "Subject" : [ {
                  "SubjectMatch" : [ {
                     "MatchId" : "urn:oasis:names:tc:xacml:1.0:function:string-equal",
                     "AttributeValue" : {
                        "DataType" : "http://www.w3.org/2001/XMLSchema#string",
                        "value" : [ "Member.function = Finance" ]
                     },
                     "SubjectAttributeDesignator" : {
                        "AttributeId" : "Member.function",
                        "DataType" : "http://www.w3.org/2001/XMLSchema#string",
                        "SubjectCategory" : "urn:oasis:names:tc:xacml:1.0:subject-category:access-subject"
                     }
                  }, {
                     "MatchId" : "urn:oasis:names:tc:xacml:1.0:function:string-equal",
                     "AttributeValue" : {
                        "DataType" : "http://www.w3.org/2001/XMLSchema#string",
                        "value" : [ "Member.level = Chief" ]
                     },
                     "SubjectAttributeDesignator" : {
                        "AttributeId" : "Member.level",
                        "DataType" : "http://www.w3.org/2001/XMLSchema#string",
                        "SubjectCategory" : "urn:oasis:names:tc:xacml:1.0:subject-category:access-subject"
                     }
                  } ]
               } ]
            },
            "Resources" : {
               "Resource" : [ {
                  "ResourceMatch" : [ {
                     "MatchId" : "urn:oasis:names:tc:xacml:1.0:function:string-equal",
                     "AttributeValue" : {
                        "DataType" : "http://www.w3.org/2001/XMLSchema#string",
                        "value" : [ "Asset.group = Document" ]
                     },
                     "ResourceAttributeDesignator" : {
                        "AttributeId" : "Asset.group",
                        "DataType" : "http://www.w3.org/2001/XMLSchema#string"
                     }
                  } ]
               } ]
            },
            "Actions" : {
               "Action" : [ {
                  "ActionMatch" : [ {
                     "MatchId" : "urn:oasis:names:tc:xacml:1.0:function:string-equal",
                     "AttributeValue" : {
                        "DataType" : "http://www.w3.org/2001/XMLSchema#string",
                        "value" : [ "Action.name = Read" ]
                     },
                     "ActionAttributeDesignator" : {
                        "AttributeId" : "urn:oasis:names:tc:xacml:1.0:action:action-id",
                        "DataType" : "http://www.w3.org/2001/XMLSchema#string"
                     }
                  } ]
               }, {
                  "ActionMatch" : [ {
                     "MatchId" : "urn:oasis:names:tc:xacml:1.0:function:string-equal",
                     "AttributeValue" : {
                        "DataType" : "http://www.w3.org/2001/XMLSchema#string",
                        "value" : [ "Action.name = Write" ]
                     },
                     "ActionAttributeDesignator" : {
                        "AttributeId" : "urn:oasis:names:tc:xacml:1.0:action:action-id",
                        "DataType" : "http://www.w3.org/2001/XMLSchema#string"
                     }
                  } ]
               } ]
            }
         }
      }, {
         "RuleId" : "R5",
         "Effect" : "Deny",
         "Description" : "Default decision is to deny access",
         "Target" : {
         }
      } ],
      "Target" : {
         "Subjects" : {
            "Subject" : [ {
               "SubjectMatch" : [ {
                  "MatchId" : "urn:oasis:names:tc:xacml:1.0:function:string-equal",
                  "AttributeValue" : {
                     "DataType" : "http://www.w3.org/2001/XMLSchema#string",
                     "value" : [ "Organisation.name = National Bank" ]
                  },
                  "SubjectAttributeDesignator" : {
                     "AttributeId" : "urn:oasis:names:tc:xacml:1.0:subject:subject-id",
                     "DataType" : "http://www.w3.org/2001/XMLSchema#string",
                     "SubjectCategory" : "urn:oasis:names:tc:xacml:1.0:subject-category:access-subject"
                  }
               } ]
            } ]
         },
         "Resources" : {
            "Resource" : [ {
               "ResourceMatch" : [ {
                  "MatchId" : "urn:oasis:names:tc:xacml:1.0:function:string-equal",
                  "AttributeValue" : {
                     "DataType" : "http://www.w3.org/2001/XMLSchema#string",
                     "value" : [ "Asset.type = Corporate Strategy" ]
                  },
                  "ResourceAttributeDesignator" : {
                     "AttributeId" : "Asset.type",
                     "DataType" : "http://www.w3.org/2001/XMLSchema#string"
                  }
               } ]
            }, {
               "ResourceMatch" : [ {
                  "MatchId" : "urn:oasis:names:tc:xacml:1.0:function:string-equal",
                  "AttributeValue" : {
                     "DataType" : "http://www.w3.org/2001/XMLSchema#string",
                     "value" : [ "Asset.type = Marketing Plan" ]
                  },
                  "ResourceAttributeDesignator" : {
                     "AttributeId" : "Asset.type",
                     "DataType" : "http://www.w3.org/2001/XMLSchema#string"
                  }
               } ]
            } ]
         },
         "Actions" : {
            "Action" : [ {
               "ActionMatch" : [ {
                  "MatchId" : "urn:oasis:names:tc:xacml:1.0:function:string-equal",
                  "AttributeValue" : {
                     "DataType" : "http://www.w3.org/2001/XMLSchema#string",
                     "value" : [ "Action.type = Document" ]
                  },
                  "ActionAttributeDesignator" : {
                     "AttributeId" : "Action.type",
                     "DataType" : "http://www.w3.org/2001/XMLSchema#string"
                  }
               } ]
            } ]
         }
      }
   }
}